{
  "images" : [
    {
      "idiom" : "universal",
      "filename" : "bell_black (25x25).png",
      "scale" : "1x"
    },
    {
      "idiom" : "universal",
      "filename" : "bell_black (50x50).png",
      "scale" : "2x"
    },
    {
      "idiom" : "universal",
      "filename" : "bell_black (75x75).png",
      "scale" : "3x"
    }
  ],
  "info" : {
    "version" : 1,
    "author" : "xcode"
  }
}